My Blog: Exploring the Temporal Evolution of COVID-19 Cases
…
for(p in packages){
  if(!require(p, character.only = T)){
    install.packages(p)
  }
  library(p, character.only = T)
}

Loading the dataset onto R

Data import was accomplished using read_csv() from readr package.

confirmed_cases_raw <- read_csv("data/time_series_covid19_confirmed_global.csv") 
confirmed_cases_raw

# A tibble: 274 x 435
   `Province/State`  `Country/Region`   Lat   Long `1/22/20` `1/23/20`
   <chr>             <chr>            <dbl>  <dbl>     <dbl>     <dbl>
 1 <NA>              Afghanistan       33.9  67.7          0         0
 2 <NA>              Albania           41.2  20.2          0         0
 3 <NA>              Algeria           28.0   1.66         0         0
 4 <NA>              Andorra           42.5   1.52         0         0
 5 <NA>              Angola           -11.2  17.9          0         0
 6 <NA>              Antigua and Bar~  17.1 -61.8          0         0
 7 <NA>              Argentina        -38.4 -63.6          0         0
 8 <NA>              Armenia           40.1  45.0          0         0
 9 Australian Capit~ Australia        -35.5 149.           0         0
10 New South Wales   Australia        -33.9 151.           0         0
# ... with 264 more rows, and 429 more variables: 1/24/20 <dbl>,
#   1/25/20 <dbl>, 1/26/20 <dbl>, 1/27/20 <dbl>, 1/28/20 <dbl>,
#   1/29/20 <dbl>, 1/30/20 <dbl>, 1/31/20 <dbl>, 2/1/20 <dbl>,
#   2/2/20 <dbl>, 2/3/20 <dbl>, 2/4/20 <dbl>, 2/5/20 <dbl>,
#   2/6/20 <dbl>, 2/7/20 <dbl>, 2/8/20 <dbl>, 2/9/20 <dbl>,
#   2/10/20 <dbl>, 2/11/20 <dbl>, 2/12/20 <dbl>, 2/13/20 <dbl>,
#   2/14/20 <dbl>, 2/15/20 <dbl>, 2/16/20 <dbl>, 2/17/20 <dbl>,
#   2/18/20 <dbl>, 2/19/20 <dbl>, 2/20/20 <dbl>, 2/21/20 <dbl>,
#   2/22/20 <dbl>, 2/23/20 <dbl>, 2/24/20 <dbl>, 2/25/20 <dbl>,
…
confirmed_cases_country_level$Date <- as.Date(confirmed_cases_country_level$Date,format="%m/%d/%y")  #converting the Date variable to Date format

# finding the daily new confirmed cases.
confirmed_cases_country_level <- confirmed_cases_country_level %>%
  group_by(Country) %>%
  arrange(Country,Date)%>%
  mutate(Daily_new_cases = TotalCases - lag(TotalCases, n =1))%>%
  drop_na()

confirmed_cases_country_level

# A tibble: 82,560 x 4
# Groups:   Country [192]
   Country     Date       TotalCases Daily_new_cases
   <chr>       <date>          <dbl>           <dbl>
 1 Afghanistan 2020-01-23          0               0
 2 Afghanistan 2020-01-24          0               0
 3 Afghanistan 2020-01-25          0               0
 4 Afghanistan 2020-01-26          0               0
 5 Afghanistan 2020-01-27          0               0
 6 Afghanistan 2020-01-28          0               0
 7 Afghanistan 2020-01-29          0               0
 8 Afghanistan 2020-01-30          0               0
 9 Afghanistan 2020-01-31          0               0
10 Afghanistan 2020-02-01          0               0
# ... with 82,550 more rows
…
US_train_tbl

# A tibble: 344 x 4
# Groups:   Country [1]
   Country Date       TotalCases Daily_new_cases
   <chr>   <date>          <dbl>           <dbl>
 1 US      2020-01-23          1               0
 2 US      2020-01-24          2               1
 3 US      2020-01-25          2               0
 4 US      2020-01-26          5               3
 5 US      2020-01-27          5               0
 6 US      2020-01-28          5               0
 7 US      2020-01-29          6               1
 8 US      2020-01-30          6               0
 9 US      2020-01-31          8               2
10 US      2020-02-01          8               0
# ... with 334 more rows

US_test_tbl

# A tibble: 86 x 4
# Groups:   Country [1]
   Country Date       TotalCases Daily_new_cases
   <chr>   <date>          <dbl>           <dbl>
 1 US      2021-01-01   20252310          153510
 2 US      2021-01-02   20552726          300416
 3 US      2021-01-03   20761467          208741
 4 US      2021-01-04   20945766          184299
 5 US      2021-01-05   21180814          235048
 6 US      2021-01-06   21436203          255389
 7 US      2021-01-07   21714268          278065
 8 US      2021-01-08   22007515          293247
 9 US      2021-01-09   22270172          262657
10 US      2021-01-10   22483440          213268
# ... with 76 more rows
…
